{
	"info": {
		"_postman_id": "4453d1ee-6c5a-4854-9f61-127b8322602e",
		"name": "Electrans CMMS",
		"schema": "https://schema.getpostman.com/json/collection/v2.1.0/collection.json",
		"_exporter_id": "7889164"
	},
	"item": [
		{
			"name": "ProductGroup",
			"protocolProfileBehavior": {
				"disabledSystemHeaders": {
					"user-agent": true,
					"accept": true,
					"accept-encoding": true,
					"connection": true,
					"content-type": true
				}
			},
			"request": {
				"method": "POST",
				"header": [
					{
						"key": "Content-Type",
						"value": "application/json; charset=utf-8",
						"type": "text"
					}
				],
				"body": {
					"mode": "raw",
					"raw": "[\n{\n\"Code\":\"001\",\n\"Name\":\"RACORES ACERO\",\n\"ShortName\":\"\",\n\"OrderIndex\":1,\n\"Status\":11\n} ,\n{\n\"Code\":\"002\",\n\"Name\":\"RACORES COBRE\",\n\"ShortName\":\"\",\n\"OrderIndex\":2,\n\"Status\":11\n}\n]",
					"options": {
						"raw": {
							"language": "json"
						}
					}
				},
				"url": {
					"raw": "{{url}}/import/ProductGroup/1",
					"host": [
						"{{url}}"
					],
					"path": [
						"import",
						"ProductGroup",
						"1"
					]
				}
			},
			"response": [
				{
					"name": "ProductGroup OK",
					"originalRequest": {
						"method": "POST",
						"header": [
							{
								"key": "Content-Type",
								"value": "application/json; charset=utf-8",
								"type": "text"
							}
						],
						"body": {
							"mode": "raw",
							"raw": "[\n{\n\"Code\":\"001\",\n\"Name\":\"RACORES ACERO\",\n\"ShortName\":\"\",\n\"OrderIndex\":1,\n\"Status\":11\n} ,\n{\n\"Code\":\"002\",\n\"Name\":\"RACORES COBRE\",\n\"ShortName\":\"\",\n\"OrderIndex\":2,\n\"Status\":11\n}\n]",
							"options": {
								"raw": {
									"language": "json"
								}
							}
						},
						"url": {
							"raw": "{{url}}/import/ProductGroup/1",
							"host": [
								"{{url}}"
							],
							"path": [
								"import",
								"ProductGroup",
								"1"
							]
						}
					},
					"status": "OK",
					"code": 200,
					"_postman_previewlanguage": null,
					"header": null,
					"cookie": [],
					"body": "{ \"ResultStatus\":\"OK\",\n\"EntityName\":\"ProductGroup\",\n\"Description\":\"OK|Product|2|2|0|0|0|\" }"
				},
				{
					"name": "ProductGroup Error",
					"originalRequest": {
						"method": "POST",
						"header": [
							{
								"key": "Content-Type",
								"value": "application/json; charset=utf-8",
								"type": "text"
							}
						],
						"body": {
							"mode": "raw",
							"raw": "[\n{\n\"Code\":\"001\",\n\"Name\":\"RACORES ACERO\",\n\"ShortName\":\"\",\n\"OrderIndex\":1,\n\"Status\":11\n} \n{\n\"Code\":\"002\",\n\"Name\":\"RACORES COBRE\",\n\"ShortName\":\"\",\n\"OrderIndex\":2,\n\"Status\":11\n}\n]",
							"options": {
								"raw": {
									"language": "json"
								}
							}
						},
						"url": {
							"raw": "{{url}}/import/ProductGroup/1",
							"host": [
								"{{url}}"
							],
							"path": [
								"import",
								"ProductGroup",
								"1"
							]
						}
					},
					"status": "Bad Request",
					"code": 400,
					"_postman_previewlanguage": null,
					"header": null,
					"cookie": [],
					"body": "{ \"ResultStatus\":\"ER\",\n\"EntityName\":\"Product\",\n\"Description\":\"ER|Product|0|0|0|0|1| >> No records have been inserted or modified <<\nInvalid JSON format\" }"
				}
			]
		},
		{
			"name": "Customer",
			"protocolProfileBehavior": {
				"disabledSystemHeaders": {
					"user-agent": true,
					"accept": true,
					"accept-encoding": true,
					"connection": true,
					"content-type": true
				}
			},
			"request": {
				"method": "POST",
				"header": [
					{
						"key": "Content-Type",
						"value": "application/json; charset=utf-8",
						"type": "text"
					}
				],
				"body": {
					"mode": "raw",
					"raw": "[\n{\n\"Code\":\"CL-0000223\",\n\"Name\":\"JOSE ANTONIO DIAZ RIOS\",\n\"CustomerDate\":\"2020-11-25\",\n\"FiscalNumber\":\"\",\n\"FiscalName\":\"\",\n\"FullAddress\":\"RONDA 8 DE MARZO Nº 170 08390 MONTGAT\",\n\"Street\":\"RONDA 8 DE MARZO\",\n\"PostalCode\":\"08390\",\n\"City\":\"MONTGAT\",\n\"StateProvinceCode\":\"\",\n\"StateProvince\":\"\",\n\"CountryCode\":\"\",\n\"Country\":\"\",\n\"CustomerContact\":\"\",\n\"Telephone1\":\"\",\n\"Telephone2\":\"\",\n\"TermsOfPaymentNotes\":\"\",\n\"TermsOfPaymentCode\":\"\",\n\"Email\":\"\",\n\"Web\":\"\",\n\"Fax\":\"\",\n\"CustomerGroupCode\":\"\",\n\"PaymentMethodCode\":\"\",\n\"CustomerTaxGroupCode\":\"\",\n\"SchippingMethod\":\"\",\n\"PriceListCode\":\"\",\n\"RouteCode\":\"\",\n\"BusinessUnitCode\":\"BU001\",\n\"CompanyCode\":\"\",\n\"FreeField1\":\"\",\n\"FreeField2\":\"\",\n\"FreeField3\":\"\",\n\"FreeField4\":\"\",\n\"FreeField5\":\"\",\n\"Blocked\":0,\n\"ExportCustomer\":0,\n\"NoActive\":0,\n\"Comments\":\"\",\n\"BankName\":\"\",\n\"BankAccount\":\"\",\n\"CarriageCode\":\"\",\n\"SpecialTax\":0,\n\"DiscountToApply\":0,\n\"AccountStateCode\":\"\",\n\"IsProvider\":0,\n\"NoCalculateServiceByDefault\":0,\n\"NotShowCalculationsInServiceSummaryByDefault\":0,\n\"PrintLanguage\":\"\",\n\"RequiredDocumentation\":0,\n\"PotentialCustomer\":0,\n\"AccountActivity\":\"\",\n\"AccountOwnerCode\":\"\",\n\"AccountPotentiality\":0,\n\"AccountSizeCode\":\"\",\n\"AccountTypeCode\":\"CUST\",\n\"Status\":11\n}\n]",
					"options": {
						"raw": {
							"language": "json"
						}
					}
				},
				"url": {
					"raw": "{{url}}/import/Customer/1",
					"host": [
						"{{url}}"
					],
					"path": [
						"import",
						"Customer",
						"1"
					]
				}
			},
			"response": [
				{
					"name": "Customer OK",
					"originalRequest": {
						"method": "POST",
						"header": [
							{
								"key": "Content-Type",
								"value": "application/json; charset=utf-8",
								"type": "text"
							}
						],
						"body": {
							"mode": "raw",
							"raw": "[\n{\n\"Code\":\"CL-0000223\",\n\"Name\":\"JOSE ANTONIO DIAZ RIOS\",\n\"CustomerDate\":\"2020-11-25\",\n\"FiscalNumber\":\"\",\n\"FiscalName\":\"\",\n\"FullAddress\":\"RONDA 8 DE MARZO Nº 170 08390 MONTGAT\",\n\"Street\":\"RONDA 8 DE MARZO\",\n\"PostalCode\":\"08390\",\n\"City\":\"MONTGAT\",\n\"StateProvinceCode\":\"\",\n\"StateProvince\":\"\",\n\"CountryCode\":\"\",\n\"Country\":\"\",\n\"CustomerContact\":\"\",\n\"Telephone1\":\"\",\n\"Telephone2\":\"\",\n\"TermsOfPaymentNotes\":\"\",\n\"TermsOfPaymentCode\":\"\",\n\"Email\":\"\",\n\"Web\":\"\",\n\"Fax\":\"\",\n\"CustomerGroupCode\":\"\",\n\"PaymentMethodCode\":\"\",\n\"CustomerTaxGroupCode\":\"\",\n\"SchippingMethod\":\"\",\n\"PriceListCode\":\"\",\n\"RouteCode\":\"\",\n\"BusinessUnitCode\":\"BU001\",\n\"CompanyCode\":\"\",\n\"FreeField1\":\"\",\n\"FreeField2\":\"\",\n\"FreeField3\":\"\",\n\"FreeField4\":\"\",\n\"FreeField5\":\"\",\n\"Blocked\":0,\n\"ExportCustomer\":0,\n\"NoActive\":0,\n\"Comments\":\"\",\n\"BankName\":\"\",\n\"BankAccount\":\"\",\n\"CarriageCode\":\"\",\n\"SpecialTax\":0,\n\"DiscountToApply\":0,\n\"AccountStateCode\":\"\",\n\"IsProvider\":0,\n\"NoCalculateServiceByDefault\":0,\n\"NotShowCalculationsInServiceSummaryByDefault\":0,\n\"PrintLanguage\":\"\",\n\"RequiredDocumentation\":0,\n\"PotentialCustomer\":0,\n\"AccountActivity\":\"\",\n\"AccountOwnerCode\":\"\",\n\"AccountPotentiality\":0,\n\"AccountSizeCode\":\"\",\n\"AccountTypeCode\":\"CUST\",\n\"Status\":11\n},\n{\n\"Code\":\"CL-0000223\",\n\"Name\":\"JOSE ANTONIO DIAZ RIOS\",\n\"CustomerDate\":\"2020-11-25\",\n\"FiscalNumber\":\"\",\n\"FiscalName\":\"\",\n\"FullAddress\":\"RONDA 8 DE MARZO Nº 170 08390 MONTGAT\",\n\"Street\":\"RONDA 8 DE MARZO\",\n\"PostalCode\":\"08390\",\n\"City\":\"MONTGAT\",\n\"StateProvinceCode\":\"\",\n\"StateProvince\":\"\",\n\"CountryCode\":\"\",\n\"Country\":\"\",\n\"CustomerContact\":\"\",\n\"Telephone1\":\"\",\n\"Telephone2\":\"\",\n\"TermsOfPaymentNotes\":\"\",\n\"TermsOfPaymentCode\":\"\",\n\"Email\":\"\",\n\"Web\":\"\",\n\"Fax\":\"\",\n\"CustomerGroupCode\":\"\",\n\"PaymentMethodCode\":\"\",\n\"CustomerTaxGroupCode\":\"\",\n\"SchippingMethod\":\"\",\n\"PriceListCode\":\"\",\n\"RouteCode\":\"\",\n\"BusinessUnitCode\":\"BU001\",\n\"CompanyCode\":\"\",\n\"FreeField1\":\"\",\n\"FreeField2\":\"\",\n\"FreeField3\":\"\",\n\"FreeField4\":\"\",\n\"FreeField5\":\"\",\n\"Blocked\":0,\n\"ExportCustomer\":0,\n\"NoActive\":0,\n\"Comments\":\"\",\n\"BankName\":\"\",\n\"BankAccount\":\"\",\n\"CarriageCode\":\"\",\n\"SpecialTax\":0,\n\"DiscountToApply\":0,\n\"AccountStateCode\":\"\",\n\"IsProvider\":0,\n\"NoCalculateServiceByDefault\":0,\n\"NotShowCalculationsInServiceSummaryByDefault\":0,\n\"PrintLanguage\":\"\",\n\"RequiredDocumentation\":0,\n\"PotentialCustomer\":0,\n\"AccountActivity\":\"\",\n\"AccountOwnerCode\":\"\",\n\"AccountPotentiality\":0,\n\"AccountSizeCode\":\"\",\n\"AccountTypeCode\":\"CUST\",\n\"Status\":11\n},\n{\n\"Code\":\"CL-0000223\",\n\"Name\":\"JOSE ANTONIO DIAZ RIOS\",\n\"CustomerDate\":\"2020-11-25\",\n\"FiscalNumber\":\"\",\n\"FiscalName\":\"\",\n\"FullAddress\":\"RONDA 8 DE MARZO Nº 170 08390 MONTGAT\",\n\"Street\":\"RONDA 8 DE MARZO\",\n\"PostalCode\":\"08390\",\n\"City\":\"MONTGAT\",\n\"StateProvinceCode\":\"\",\n\"StateProvince\":\"\",\n\"CountryCode\":\"\",\n\"Country\":\"\",\n\"CustomerContact\":\"\",\n\"Telephone1\":\"\",\n\"Telephone2\":\"\",\n\"TermsOfPaymentNotes\":\"\",\n\"TermsOfPaymentCode\":\"\",\n\"Email\":\"\",\n\"Web\":\"\",\n\"Fax\":\"\",\n\"CustomerGroupCode\":\"\",\n\"PaymentMethodCode\":\"\",\n\"CustomerTaxGroupCode\":\"\",\n\"SchippingMethod\":\"\",\n\"PriceListCode\":\"\",\n\"RouteCode\":\"\",\n\"BusinessUnitCode\":\"BU001\",\n\"CompanyCode\":\"\",\n\"FreeField1\":\"\",\n\"FreeField2\":\"\",\n\"FreeField3\":\"\",\n\"FreeField4\":\"\",\n\"FreeField5\":\"\",\n\"Blocked\":0,\n\"ExportCustomer\":0,\n\"NoActive\":0,\n\"Comments\":\"\",\n\"BankName\":\"\",\n\"BankAccount\":\"\",\n\"CarriageCode\":\"\",\n\"SpecialTax\":0,\n\"DiscountToApply\":0,\n\"AccountStateCode\":\"\",\n\"IsProvider\":0,\n\"NoCalculateServiceByDefault\":0,\n\"NotShowCalculationsInServiceSummaryByDefault\":0,\n\"PrintLanguage\":\"\",\n\"RequiredDocumentation\":0,\n\"PotentialCustomer\":0,\n\"AccountActivity\":\"\",\n\"AccountOwnerCode\":\"\",\n\"AccountPotentiality\":0,\n\"AccountSizeCode\":\"\",\n\"AccountTypeCode\":\"CUST\",\n\"Status\":11\n}\n]",
							"options": {
								"raw": {
									"language": "json"
								}
							}
						},
						"url": {
							"raw": "{{url}}/import/Customer/1",
							"host": [
								"{{url}}"
							],
							"path": [
								"import",
								"Customer",
								"1"
							]
						}
					},
					"status": "OK",
					"code": 200,
					"_postman_previewlanguage": null,
					"header": null,
					"cookie": [],
					"body": "{ \"ResultStatus\":\"OK\",\n\"EntityName\":\"Customer\",\n\"Description\":\"OK|Customer|2|1|1|0|0|\" }"
				},
				{
					"name": "Customer Error",
					"originalRequest": {
						"method": "POST",
						"header": [
							{
								"key": "Content-Type",
								"value": "application/json; charset=utf-8",
								"type": "text"
							}
						],
						"body": {
							"mode": "raw",
							"raw": "[\n{\n\"Name\":\"JOSE ANTONIO DIAZ RIOS\",\n\"CustomerDate\":\"2020-11-25\",\n\"FiscalNumber\":\"\",\n\"FiscalName\":\"\",\n\"FullAddress\":\"RONDA 8 DE MARZO Nº 170 08390 MONTGAT\",\n\"Street\":\"RONDA 8 DE MARZO\",\n\"PostalCode\":\"08390\",\n\"City\":\"MONTGAT\",\n\"StateProvinceCode\":\"\",\n\"StateProvince\":\"\",\n\"CountryCode\":\"\",\n\"Country\":\"\",\n\"CustomerContact\":\"\",\n\"Telephone1\":\"\",\n\"Telephone2\":\"\",\n\"TermsOfPaymentNotes\":\"\",\n\"TermsOfPaymentCode\":\"\",\n\"Email\":\"\",\n\"Web\":\"\",\n\"Fax\":\"\",\n\"CustomerGroupCode\":\"\",\n\"PaymentMethodCode\":\"\",\n\"CustomerTaxGroupCode\":\"\",\n\"SchippingMethod\":\"\",\n\"PriceListCode\":\"\",\n\"RouteCode\":\"\",\n\"BusinessUnitCode\":\"BU001\",\n\"CompanyCode\":\"\",\n\"FreeField1\":\"\",\n\"FreeField2\":\"\",\n\"FreeField3\":\"\",\n\"FreeField4\":\"\",\n\"FreeField5\":\"\",\n\"Blocked\":0,\n\"ExportCustomer\":0,\n\"NoActive\":0,\n\"Comments\":\"\",\n\"BankName\":\"\",\n\"BankAccount\":\"\",\n\"CarriageCode\":\"\",\n\"SpecialTax\":0,\n\"DiscountToApply\":0,\n\"AccountStateCode\":\"\",\n\"IsProvider\":0,\n\"NoCalculateServiceByDefault\":0,\n\"NotShowCalculationsInServiceSummaryByDefault\":0,\n\"PrintLanguage\":\"\",\n\"RequiredDocumentation\":0,\n\"PotentialCustomer\":0,\n\"AccountActivity\":\"\",\n\"AccountOwnerCode\":\"\",\n\"AccountPotentiality\":0,\n\"AccountSizeCode\":\"\",\n\"AccountTypeCode\":\"CUST\",\n\"Status\":11\n}\n]",
							"options": {
								"raw": {
									"language": "json"
								}
							}
						},
						"url": {
							"raw": "{{url}}/import/Customer/1",
							"host": [
								"{{url}}"
							],
							"path": [
								"import",
								"Customer",
								"1"
							]
						}
					},
					"status": "Bad Request",
					"code": 400,
					"_postman_previewlanguage": null,
					"header": null,
					"cookie": [],
					"body": "{ \"ResultStatus\":\"ER\",\n\"EntityName\":\"Customer\",\n\"Description\":\"ER|Customer|0|0|0|0|1| >> No records have been inserted or modified <<\nInvalid JSON format\" }"
				}
			]
		},
		{
			"name": "Product",
			"protocolProfileBehavior": {
				"disabledSystemHeaders": {
					"user-agent": true,
					"accept": true,
					"accept-encoding": true,
					"connection": true,
					"content-type": true
				}
			},
			"request": {
				"method": "POST",
				"header": [
					{
						"key": "Content-Type",
						"value": "application/json; charset=utf-8",
						"type": "text"
					}
				],
				"body": {
					"mode": "raw",
					"raw": "[\n{\n\"Code\":\"01000123\",\n\"Name\":\"RACOR ACERO 4 SOLDAR\",\n\"ProductTypeCode\":\"MA\",\n\"ProductCost\":0,\n\"ProductGroupCode\":\"001\",\n\"ProductSubGroupCode\":\"001-12\",\n\"FreeField1\":\"\",\n\"FreeField2\":\"\",\n\"FreeField3\":\"\",\n\"FreeField4\":\"\",\n\"FreeField5\":\"\",\n\"Price\":0,\n\"TaxToApply\":0,\n\"BarCode\":\"\",\n\"PicturePath\":\"\",\n\"CostCode\":\"\",\n\"NoActive\":0,\n\"NotInMD\":0,\n\"Status\":11\n},\n{\n\"Code\":\"01000144\",\n\"Name\":\"RACOR COBRE 5 SOLDAR\",\n\"ProductTypeCode\":\"MA\",\n\"ProductCost\":0,\n\"ProductGroupCode\":\"002\",\n\"ProductSubGroupCode\":\"002-78\",\n\"FreeField1\":\"\",\n\"FreeField2\":\"\",\n\"FreeField3\":\"\",\n\"FreeField4\":\"\",\n\"FreeField5\":\"\",\n\"Price\":0,\n\"TaxToApply\":0,\n\"BarCode\":\"\",\n\"PicturePath\":\"\",\n\"CostCode\":\"\",\n\"NoActive\":0,\n\"NotInMD\":0,\n\"Status\":11\n}\n]",
					"options": {
						"raw": {
							"language": "json"
						}
					}
				},
				"url": {
					"raw": "{{url}}/import/Product/1",
					"host": [
						"{{url}}"
					],
					"path": [
						"import",
						"Product",
						"1"
					]
				}
			},
			"response": [
				{
					"name": "Product OK",
					"originalRequest": {
						"method": "POST",
						"header": [
							{
								"key": "Content-Type",
								"value": "application/json; charset=utf-8",
								"type": "text"
							}
						],
						"body": {
							"mode": "raw",
							"raw": "[\n{\n\"Code\":\"01000123\",\n\"Name\":\"RACOR ACERO 4 SOLDAR\",\n\"ProductTypeCode\":\"MA\",\n\"ProductCost\":0,\n\"ProductGroupCode\":\"001\",\n\"ProductSubGroupCode\":\"001-12\",\n\"FreeField1\":\"\",\n\"FreeField2\":\"\",\n\"FreeField3\":\"\",\n\"FreeField4\":\"\",\n\"FreeField5\":\"\",\n\"Price\":0,\n\"TaxToApply\":0,\n\"BarCode\":\"\",\n\"PicturePath\":\"\",\n\"CostCode\":\"\",\n\"NoActive\":0,\n\"NotInMD\":0,\n\"Status\":11\n},\n{\n\"Code\":\"01000144\",\n\"Name\":\"RACOR COBRE 5 SOLDAR\",\n\"ProductTypeCode\":\"MA\",\n\"ProductCost\":0,\n\"ProductGroupCode\":\"002\",\n\"ProductSubGroupCode\":\"002-78\",\n\"FreeField1\":\"\",\n\"FreeField2\":\"\",\n\"FreeField3\":\"\",\n\"FreeField4\":\"\",\n\"FreeField5\":\"\",\n\"Price\":0,\n\"TaxToApply\":0,\n\"BarCode\":\"\",\n\"PicturePath\":\"\",\n\"CostCode\":\"\",\n\"NoActive\":0,\n\"NotInMD\":0,\n\"Status\":11\n}\n]",
							"options": {
								"raw": {
									"language": "json"
								}
							}
						},
						"url": {
							"raw": "{{url}}/import/Product/1",
							"host": [
								"{{url}}"
							],
							"path": [
								"import",
								"Product",
								"1"
							]
						}
					},
					"status": "OK",
					"code": 200,
					"_postman_previewlanguage": null,
					"header": null,
					"cookie": [],
					"body": "{ \"ResultStatus\":\"OK\",\n\"EntityName\":\"Product\",\n\"Description\":\"OK|Product|2|1|1|0|0|\" }"
				},
				{
					"name": "Product Error",
					"originalRequest": {
						"method": "POST",
						"header": [
							{
								"key": "Content-Type",
								"value": "application/json; charset=utf-8",
								"type": "text"
							}
						],
						"body": {
							"mode": "raw",
							"raw": "[\n{\n\"Code\":\"01000123\",\n\"Name\":\"RACOR ACERO 4 SOLDAR\",\n\"ProductTypeCode\":\"MA\",\n\"ProductCost\":0,\n\"ProductGroupCode\":\"001\",\n\"ProductSubGroupCode\":\"001-12\",\n\"FreeField1\":\"\",\n\"FreeField2\":\"\",\n\"FreeField3\":\"\",\n\"FreeField4\":\"\",\n\"FreeField5\":\"\",\n\"Price\":0,\n\"TaxToApply\":0,\n\"BarCode\":\"\",\n\"PicturePath\":\"\",\n\"CostCode\":\"\",\n\"NoActive\":0,\n\"NotInMD\":0,\n\"Status\":11\n},\n{\n\"Code\":\"01000144\",\n\"Name\":\"RACOR COBRE 5 SOLDAR\",\n\"ProductTypeCode\":\"MA\",\n\"ProductCost\":0,\n\"ProductGroupCode\":\"002\",\n\"ProductSubGroupCode\":\"002-78\",\n",
							"options": {
								"raw": {
									"language": "json"
								}
							}
						},
						"url": {
							"raw": "{{url}}/import/Product/1",
							"host": [
								"{{url}}"
							],
							"path": [
								"import",
								"Product",
								"1"
							]
						}
					},
					"status": "Bad Request",
					"code": 400,
					"_postman_previewlanguage": null,
					"header": null,
					"cookie": [],
					"body": "{ \"ResultStatus\":\"ER\",\n\"EntityName\":\"Customer\",\n\"Description\":\"ER|Customer|0|0|0|0|1| >> No records have been inserted or modified <<\nInvalid JSON format\" }"
				}
			]
		},
		{
			"name": "Post OFR",
			"request": {
				"auth": {
					"type": "bearer",
					"bearer": [
						{
							"key": "token",
							"value": "b262c68bc601406c83004853947d81c7ae6b2af4348f46b082131cf679f7574d81024013106247a1b0450fb51c27c0309db0be1e16914ba4a28dc41463cba13b",
							"type": "string"
						}
					]
				},
				"method": "POST",
				"header": [],
				"body": {
					"mode": "raw",
					"raw": "{\n  \"customer_id\": \"1344\",\n  \"project_number\": \"OFRQ-013\",\n  \"work_lines\": [\n      {\n      \"description\": \"Descripcion 1\",\n      \"hours\": \"2\"\n      },\n      {\n      \"description\": \"Descripcion 2\",\n      \"hours\": \"2\"\n      },\n      {\n      \"description\": \"Descripcion 3\",\n      \"hours\": \"2\"\n      }\n  ]\n}",
					"options": {
						"raw": {
							"language": "json"
						}
					}
				},
				"url": {
					"raw": "http://localhost:8000/electrans/electrans_cmms/sale/insert",
					"protocol": "http",
					"host": [
						"localhost"
					],
					"port": "8000",
					"path": [
						"electrans",
						"electrans_cmms",
						"sale",
						"insert"
					]
				}
			},
			"response": []
		}
	],
	"event": [
		{
			"listen": "prerequest",
			"script": {
				"type": "text/javascript",
				"exec": [
					""
				]
			}
		},
		{
			"listen": "test",
			"script": {
				"type": "text/javascript",
				"exec": [
					""
				]
			}
		}
	],
	"variable": [
		{
			"key": "url",
			"value": "https://005322af-0c23-47bb-b45f-2777267c801f.mock.pstmn.io",
			"type": "string"
		}
	]
}